{
    "prepare_queue": {
        "installed": [],
        "uninstalled": []
    },
    "config_munge": {
        "files": {}
    },
    "installed_plugins": {
        "com.ionic.keyboard": {
            "PACKAGE_NAME": "ivizzio"
        },
        "com.phonegap.plugins.fileopener": {
            "PACKAGE_NAME": "ivizzio"
        },
        "cordova-plugin-dialogs": {
            "PACKAGE_NAME": "ivizzio"
        },
        "cordova-plugin-file": {
            "PACKAGE_NAME": "ivizzio"
        },
        "cordova-plugin-file-transfer": {
            "PACKAGE_NAME": "ivizzio"
        },
        "cordova-plugin-inappbrowser": {
            "PACKAGE_NAME": "ivizzio"
        },
        "cordova-plugin-network-information": {
            "PACKAGE_NAME": "ivizzio"
        },
        "cordova-plugin-device": {
            "PACKAGE_NAME": "ivizzio"
        }
    },
    "dependent_plugins": {}
}